{
  "pagination": {
    "total_results": 3,
    "first": {
      "href": "/v3/processes?page=1&per_page=2"
    },
    "last": {
      "href": "/v3/processes?page=2&per_page=2"
    },
    "next": {
      "href": "/v3/processes?page=2&per_page=2"
    },
    "previous": null
  },
  "resources": [
    {
      "guid": "4de53195-876d-4b97-a4f6-79b0b65e9f30",
      "type": "web",
      "command": null,
      "instances": 1,
      "memory_in_mb": 1024,
      "disk_in_mb": 1024,
      "created_at": "2016-01-26T22:20:11Z",
      "updated_at": "2016-01-26T22:20:11Z",
      "links": {
        "self": {
          "href": "/v3/processes/4de53195-876d-4b97-a4f6-79b0b65e9f30"
        },
        "scale": {
          "href": "/v3/processes/4de53195-876d-4b97-a4f6-79b0b65e9f30/scale",
          "method": "PUT"
        },
        "app": {
          "href": "/v3/apps/guid-8fb1c462-d4ca-43b8-9b7b-a3e76158cb06"
        },
        "space": {
          "href": "/v2/spaces/fba1181c-5acc-4c6b-96b5-13abaaba7381"
        }
      }
    },
    {
      "guid": "e6020111-0a8c-4515-97f0-120e50f8ab53",
      "type": "web",
      "command": null,
      "instances": 1,
      "memory_in_mb": 1024,
      "disk_in_mb": 1024,
      "created_at": "2016-01-26T22:20:11Z",
      "updated_at": "2016-01-26T22:20:11Z",
      "links": {
        "self": {
          "href": "/v3/processes/e6020111-0a8c-4515-97f0-120e50f8ab53"
        },
        "scale": {
          "href": "/v3/processes/e6020111-0a8c-4515-97f0-120e50f8ab53/scale",
          "method": "PUT"
        },
        "app": {
          "href": "/v3/apps/"
        },
        "space": {
          "href": "/v2/spaces/fba1181c-5acc-4c6b-96b5-13abaaba7381"
        }
      }
    }
  ]
}
