{
  "pagination": {
    "total_results": 3,
    "first": {
      "href": "/v3/packages?page=1&per_page=2"
    },
    "last": {
      "href": "/v3/packages?page=2&per_page=2"
    },
    "next": {
      "href": "/v3/packages?page=2&per_page=2"
    },
    "previous": null
  },
  "resources": [
    {
      "guid": "guid-2731172f-0714-430e-81e7-d662509d555b",
      "type": "bits",
      "data": {
        "error": null,
        "hash": {
          "type": "sha1",
          "value": null
        }
      },
      "state": "AWAITING_UPLOAD",
      "created_at": "2016-01-26T22:20:12Z",
      "updated_at": null,
      "links": {
        "self": {
          "href": "/v3/packages/guid-2731172f-0714-430e-81e7-d662509d555b"
        },
        "upload": {
          "href": "/v3/packages/guid-2731172f-0714-430e-81e7-d662509d555b/upload",
          "method": "POST"
        },
        "download": {
          "href": "/v3/packages/guid-2731172f-0714-430e-81e7-d662509d555b/download",
          "method": "GET"
        },
        "stage": {
          "href": "/v3/packages/guid-2731172f-0714-430e-81e7-d662509d555b/droplets",
          "method": "POST"
        },
        "app": {
          "href": "/v3/apps/guid-f4384453-4610-4075-b2c3-c2290401dbb9"
        }
      }
    },
    {
      "guid": "guid-10217847-a68c-4c08-89d6-b247d8afe647",
      "type": "docker",
      "data": {
        "image": "http://location-of-image.com"
      },
      "state": "READY",
      "created_at": "2016-01-26T22:20:12Z",
      "updated_at": null,
      "links": {
        "self": {
          "href": "/v3/packages/guid-10217847-a68c-4c08-89d6-b247d8afe647"
        },
        "stage": {
          "href": "/v3/packages/guid-10217847-a68c-4c08-89d6-b247d8afe647/droplets",
          "method": "POST"
        },
        "app": {
          "href": "/v3/apps/guid-f4384453-4610-4075-b2c3-c2290401dbb9"
        }
      }
    }
  ]
}
