{
  "pagination": {
    "total_results": 3,
    "first": {
      "href": "/v3/apps/ccc25a0f-c8f4-4b39-9f1b-de9f328d0ee5/processes?page=1&per_page=2"
    },
    "last": {
      "href": "/v3/apps/ccc25a0f-c8f4-4b39-9f1b-de9f328d0ee5/processes?page=2&per_page=2"
    },
    "next": {
      "href": "/v3/apps/ccc25a0f-c8f4-4b39-9f1b-de9f328d0ee5/processes?page=2&per_page=2"
    },
    "previous": null
  },
  "resources": [
    {
      "guid": "6a901b7c-9417-4dc1-8189-d3234aa0ab82",
      "type": "web",
      "command": "rackup",
      "instances": 5,
      "memory_in_mb": 256,
      "disk_in_mb": 1024,
      "ports": [
        8080
      ],
      "created_at": "2016-03-23T18:48:22Z",
      "updated_at": "2016-03-23T18:48:42Z",
      "links": {
        "self": {
          "href": "/v3/processes/6a901b7c-9417-4dc1-8189-d3234aa0ab82"
        },
        "scale": {
          "href": "/v3/processes/6a901b7c-9417-4dc1-8189-d3234aa0ab82/scale",
          "method": "PUT"
        },
        "app": {
          "href": "/v3/apps/ccc25a0f-c8f4-4b39-9f1b-de9f328d0ee5"
        },
        "space": {
          "href": "/v2/spaces/2f35885d-0c9d-4423-83ad-fd05066f8576"
        }
      }
    },
    {
      "guid": "3fccacd9-4b02-4b96-8d02-8e865865e9eb",
      "type": "worker",
      "command": "bundle exec rake worker",
      "instances": 1,
      "memory_in_mb": 256,
      "disk_in_mb": 1024,
      "ports": [],
      "created_at": "2016-03-23T18:48:22Z",
      "updated_at": "2016-03-23T18:48:42Z",
      "links": {
        "self": {
          "href": "/v3/processes/3fccacd9-4b02-4b96-8d02-8e865865e9eb"
        },
        "scale": {
          "href": "/v3/processes/6a901b7c-9417-4dc1-8189-d3234aa0ab82/scale",
          "method": "PUT"
        },
        "app": {
          "href": "/v3/apps/ccc25a0f-c8f4-4b39-9f1b-de9f328d0ee5"
        },
        "space": {
          "href": "/v2/spaces/2f35885d-0c9d-4423-83ad-fd05066f8576"
        }
      }
    }
  ]
}
