{
  "total_results": 2,
  "total_pages": 2,
  "prev_url": null,
  "next_url": "/v2/app_usage_events?after_guid=f1d8ddec-d36a-4670-acb8-6082a1f1a95f&order-direction=asc&page=2&results-per-page=1",
  "resources": [
    {
      "metadata": {
        "guid": "12dc4396-b7d1-444e-a3b4-9497c4ca0d14",
        "url": "/v2/app_usage_events/12dc4396-b7d1-444e-a3b4-9497c4ca0d14",
        "created_at": "2016-03-14T22:30:38Z"
      },
      "entity": {
        "state": "STARTED",
        "memory_in_mb_per_instance": 564,
        "instance_count": 1,
        "app_guid": "guid-1460025b-eb6a-4459-8f43-0d7db43dc71f",
        "app_name": "name-1783",
        "space_guid": "guid-766a0db1-6391-4d9e-9ce9-f2f7cdf93190",
        "space_name": "name-1784",
        "org_guid": "guid-7f111ae5-9017-49f6-afe7-3a175b9f7a79",
        "buildpack_guid": "guid-c17e9ffa-a1f8-4140-9718-f627be3a3459",
        "buildpack_name": "name-1785",
        "package_state": "STAGED",
        "parent_app_guid": null,
        "parent_app_name": null,
        "process_type": "web",
        "task_name": null,
        "task_guid": null
      }
    }
  ]
}