{
  "pagination": {
    "total_results": 3,
    "first": {
      "href": "/v3/service_credential_bindings?page=1&per_page=2"
    },
    "last": {
      "href": "/v3/service_credential_bindings?page=2&per_page=2"
    },
    "next": {
      "href": "/v3/service_credential_bindings?page=2&per_page=2"
    },
    "previous": null
  },
  "resources": [
    {
      "guid": "dde5ad2a-d8f4-44dc-a56f-0452d744f1c3",
      "type": "app",
      "relationships": {
        "app": {
          "data": {
            "guid": "74f7c078-0934-470f-9883-4fddss5b8f13"
          }
        },
        "service_instance": {
          "data": {
            "guid": "8bfe4c1b-9e18-45b1-83be-124163f31f9e"
          }
        }
      },
      "created_at": "2015-11-13T17:02:56Z",
      "updated_at": null,
      "links": {
        "self": {
          "href": "/v3/service_credential_bindings/dde5ad2a-d8f4-44dc-a56f-0452d744f1c3"
        },
        "service_instance": {
          "href": "/v3/service_instances/8bfe4c1b-9e18-45b1-83be-124163f31f9e"
        },
        "app": {
          "href": "/v3/apps/74f7c078-0934-470f-9883-4fddss5b8f13"
        }
      }
    },
    {
      "guid": "7aa37bad-6ccb-4ef9-ba48-9ce3a91b2b62",
      "type": "app",
      "relationships": {
        "app": {
          "data": {
            "guid": "74f7c078-0934-470f-9883-4fddss5b8f13"
          }
        },
        "service_instance": {
          "data": {
            "guid": "8bf356j3-9e18-45b1-3333-124163f31f9e"
          }
        }
      },
      "created_at": "2015-11-13T17:02:56Z",
      "updated_at": null,
      "links": {
        "self": {
          "href": "/v3/service_credential_bindings/7aa37bad-6ccb-4ef9-ba48-9ce3a91b2b62"
        },
        "service_instance": {
          "href": "/v3/service_instances/8bf356j3-9e18-45b1-3333-124163f31f9e"
        },
        "app": {
          "href": "/v3/apps/74f7c078-0934-470f-9883-4fddss5b8f13"
        }
      }
    }
  ]
}
