{
  "pagination": {
    "total_results": 3,
    "first": {
      "href": "/v3/processes?page=1&per_page=2"
    },
    "last": {
      "href": "/v3/processes?page=2&per_page=2"
    },
    "next": {
      "href": "/v3/processes?page=2&per_page=2"
    },
    "previous": null
  },
  "resources": [
    {
      "guid": "fdfa71c4-5e0e-4f68-adb6-82fc250cd233",
      "type": "web",
      "command": null,
      "instances": 1,
      "memory_in_mb": 1024,
      "disk_in_mb": 1024,
      "created_at": "2015-07-27T22:43:31Z",
      "updated_at": "2015-07-27T22:43:31Z",
      "_links": {
        "self": {
          "href": "/v3/processes/fdfa71c4-5e0e-4f68-adb6-82fc250cd233"
        },
        "scale": {
          "href": "/v3/processes/fdfa71c4-5e0e-4f68-adb6-82fc250cd233/scale",
          "method": "PUT"
        },
        "app": {
          "href": "/v3/apps/guid-e7b136ef-0e53-4421-a34e-f7d5bcc3508e"
        },
        "space": {
          "href": "/v2/spaces/176b0be5-f742-4db3-a0a2-6c178351052e"
        }
      }
    },
    {
      "guid": "491ef052-92a1-4c82-9cb9-7cf840a79eed",
      "type": "web",
      "command": null,
      "instances": 1,
      "memory_in_mb": 1024,
      "disk_in_mb": 1024,
      "created_at": "2015-07-27T22:43:31Z",
      "updated_at": "2015-07-27T22:43:31Z",
      "_links": {
        "self": {
          "href": "/v3/processes/491ef052-92a1-4c82-9cb9-7cf840a79eed"
        },
        "scale": {
          "href": "/v3/processes/491ef052-92a1-4c82-9cb9-7cf840a79eed/scale",
          "method": "PUT"
        },
        "app": {
          "href": "/v3/apps/"
        },
        "space": {
          "href": "/v2/spaces/176b0be5-f742-4db3-a0a2-6c178351052e"
        }
      }
    }
  ]
}